Kaggle-Expedia-Analysis
…
Fix missing values

https://ajourneyintodatascience.quora.com/Learning-to-Rank-Personalize-Expedia-Hotel-Searches-ICDM-2013-Data-Cleaning

Breakdown of the features with missing values

filter(missing_values, Value > 0) %>% 
  select(Variable)

## # A tibble: 31 x 1
##    Variable               
##    <fct>                  
##  1 comp1_rate_percent_diff
##  2 comp6_rate_percent_diff
##  3 comp1_rate             
##  4 comp1_inv              
##  5 comp4_rate_percent_diff
##  6 gross_bookings_usd     
##  7 comp7_rate_percent_diff
##  8 comp6_rate             
##  9 visitor_hist_starrating
## 10 visitor_hist_adr_usd   
## # ... with 21 more rows
…
